1224713253,1496,1490,1492,1498,1181,1496,1490,1492,1498,1181,-0.000001,0.000000,0.000000,0.000000,0.000000,0.000000,-0.000006,0.000000
1224813275,1496,1489,1492,1497,1181,1496,1489,1492,1497,1181,-0.000001,0.000000,0.000000,0.000000,0.000000,0.000000,-0.000006,0.000000
1224913276,1496,1489,1492,1497,1181,1496,1489,1492,1497,1181,-0.000001,0.000000,0.000000,0.000000,0.000000,0.000000,-0.000006,0.000000
1225013293,1496,1492,1492,1497,1181,1496,1492,1492,1497,1181,-0.000001,0.000000,0.000000,0.000000,0.000000,0.000000,-0.000006,0.000000
1225113321,1497,1492,1492,1498,1181,1497,1492,1492,1498,1181,-0.000001,0.000000,0.000000,0.000000,0.000000,0.000000,-0.000006,0.000000
1225213355,1496,1492,1492,1498,1181,1496,1492,1492,1498,1181,-0.000001,0.000000,0.000000,0.000000,0.000000,0.000000,-0.000006,0.000000
1225313369,1496,1492,1492,1497,1181,1496,1492,1492,1497,1181,-0.000001,0.000000,0.000000,0.000000,0.000000,0.000000,-0.000006,0.000000
1225413375,1497,1492,1492,1498,1181,1497,1492,1492,1498,1181,-0.000001,0.000000,0.000000,0.000000,0.000000,0.000000,-0.000006,0.000000
1225513391,1496,1492,1492,1497,1181,1496,1492,1492,1497,1181,-0.000001,0.000000,0.000000,0.000000,0.000000,0.000000,-0.000006,0.000000
1225613410,1497,1492,1492,1497,1181,1497,1492,1492,1497,1181,-0.000001,0.000000,0.000000,0.000000,0.000000,0.000000,-0.000006,0.000000
1225713417,1497,1492,1492,1497,1181,1497,1492,1492,1497,1181,-0.000001,0.000000,0.000000,0.000000,0.000000,0.000000,-0.000006,0.000000
1225813429,1496,1492,1492,1496,1181,1496,1492,1492,1496,1181,-0.000001,0.000000,0.000000,0.000000,0.000000,0.000000,-0.000006,0.000000
1225913462,1496,1490,1492,1496,1181,1496,1490,1492,1496,1181,-0.000001,0.000000,0.000000,0.000000,0.000000,0.000000,-0.000006,0.000000
1226013477,1496,1489,1492,1496,1181,1496,1489,1492,1496,1181,-0.000001,0.000000,0.000000,0.000000,0.000000,0.000000,-0.000006,0.000000
1226113510,1496,1489,1491,1496,1181,1496,1489,1491,1496,1181,-0.000001,0.000000,0.000000,0.000000,0.000000,0.000000,-0.000006,0.000000
1226213538,1496,1491,1491,1496,1181,1496,1491,1491,1496,1181,-0.000001,0.000000,0.000000,0.000000,0.000000,0.000000,-0.000006,0.000000
1226313570,1496,1492,1491,1496,1181,1496,1492,1491,1496,1181,-0.000001,0.000000,0.000000,0.000000,0.000000,0.000000,-0.000006,0.000000
1226413598,1496,1492,1491,1497,1181,1496,1492,1491,1497,1181,-0.000001,0.000000,0.000000,0.000000,0.000000,0.000000,-0.000006,0.000000
1226513629,1496,1492,1491,1498,1181,1496,1492,1491,1498,1181,-0.000001,0.000000,0.000000,0.000000,0.000000,0.000000,-0.000006,0.000000
1226613640,1496,1489,1491,1496,1181,1496,1489,1491,1496,1181,-0.000001,0.000000,0.000000,0.000000,0.000000,0.000000,-0.000006,0.000000
1226713673,1496,1490,1491,1495,1181,1496,1490,1491,1495,1181,-0.000001,0.000000,0.000000,0.000000,0.000000,0.000000,-0.000006,0.000000
1226813675,1496,1490,1491,1491,1181,1496,1490,1491,1491,1181,-0.000001,0.000000,0.000000,0.000000,0.000000,0.000000,-0.000006,0.000000
1226913697,1497,1489,1491,1497,1181,1497,1489,1491,1497,1181,-0.000001,0.000000,0.000000,0.000000,0.000000,0.000000,-0.000006,0.000000
1227013722,1496,1489,1491,1496,1181,1496,1489,1491,1496,1181,-0.000001,0.000000,0.000000,0.000000,0.000000,0.000000,-0.000006,0.000000
1227113740,1497,1490,1491,1497,1181,1497,1490,1491,1497,1181,-0.000001,0.000000,0.000000,0.000000,0.000000,0.000000,-0.000006,0.000000
1227213754,1496,1491,1491,1496,1181,1496,1491,1491,1496,1181,-0.000001,0.000000,0.000000,0.000000,0.000000,0.000000,-0.000006,0.000000
1227313761,1496,1492,1487,1496,1181,1496,1492,1487,1496,1181,-0.000001,0.000000,0.000000,0.000000,0.000000,0.000000,-0.000006,0.000000
1227413783,1496,1492,1491,1496,1181,1496,1492,1491,1496,1181,-0.000001,0.000000,0.000000,0.000000,0.000000,0.000000,-0.000006,0.000000
1227513795,1497,1490,1492,1497,1181,1497,1490,1492,1497,1181,-0.000001,0.000000,0.000000,0.000000,0.000000,0.000000,-0.000006,0.000000
1227613812,1496,1492,1491,1496,1181,1496,1492,1491,1496,1181,-0.000001,0.000000,0.000000,0.000000,0.000000,0.000000,-0.000006,0.000000
1227713832,1496,1492,1491,1496,1181,1496,1492,1491,1496,1181,-0.000001,0.000000,0.000000,0.000000,0.000000,0.000000,-0.000006,0.000000
1227813849,1496,1492,1491,1496,1181,1496,1492,1491,1496,1181,-0.000001,0.000000,0.000000,0.000000,0.000000,0.000000,-0.000006,0.000000
1227913880,1497,1492,1479,1497,1181,1497,1492,1479,1497,1181,-0.000001,0.000000,0.000000,0.000000,0.000000,0.000000,-0.000006,0.000000
1228013887,1496,1492,1452,1496,1181,1496,1492,1452,1496,1181,-0.000001,0.000000,0.000000,0.000000,0.000000,0.000000,-0.000006,0.000000
1228113906,1497,1491,1451,1497,1181,1497,1491,1451,1497,1181,-0.000001,0.000000,0.000000,0.000000,0.000000,0.000000,-0.000006,0.000000
1228213940,1482,1494,1375,1496,1181,1482,1494,1375,1496,1181,-0.000001,0.000000,0.000000,0.000000,0.000000,0.000000,-0.000006,0.000000
1228313968,1331,1497,1280,1495,1181,1331,1497,1280,1495,1181,-0.000001,0.000000,0.000000,0.000000,0.000000,0.000000,-0.000006,0.000000
1228413991,1443,1494,1280,1496,1181,1443,1494,1280,1496,1181,-0.000001,0.000000,0.000000,0.000000,0.000000,0.000000,-0.000006,0.000000
1228514017,1441,1494,1284,1495,1181,1441,1494,1284,1495,1181,-0.000001,0.000000,0.000000,0.000000,0.000000,0.000000,-0.000006,0.000000
1228614037,1441,1494,1284,1495,1181,1441,1494,1284,1495,1181,-0.000001,0.000000,0.000000,0.000000,0.000000,0.000000,-0.000006,0.000000
1228714057,1441,1494,1296,1495,1181,1441,1494,1296,1495,1181,-0.000001,0.000000,0.000000,0.000000,0.000000,0.000000,-0.000006,0.000000
1228814090,1443,1494,1301,1495,1181,1443,1494,1301,1495,1181,-0.000001,0.000000,0.000000,0.000000,0.000000,0.000000,-0.000006,0.000000
1228914119,1442,1494,1300,1495,1181,1442,1494,1300,1495,1181,-0.000001,0.000000,0.000000,0.000000,0.000000,0.000000,-0.000006,0.000000
1229014124,1443,1494,1294,1495,1181,1443,1494,1294,1495,1181,-0.000001,0.000000,0.000000,0.000000,0.000000,0.000000,-0.000006,0.000000
1229114132,1234,1529,1201,1493,1181,1234,1529,1201,1493,1181,-0.000001,0.000000,0.000000,0.000000,0.000000,0.000000,-0.000006,0.000000
1229214135,1061,1671,1073,1373,1181,1061,1671,1073,1373,1181,-0.000001,0.000000,0.000000,0.000000,0.000000,0.000000,-0.000006,0.000000
1229314159,1061,1759,1073,1190,1181,1061,1759,1073,1190,1181,-0.000001,0.000000,0.000000,0.000000,0.000000,0.000000,-0.000006,0.000000
1229414194,1061,1888,1073,1098,1181,1061,1888,1073,1098,1181,-0.000001,0.000000,0.000000,0.000000,0.000000,0.000000,-0.000006,0.000000
1229514210,1061,1907,1073,1099,1181,1061,1907,1073,1099,1181,-0.000001,0.000000,0.000000,0.000000,0.000000,0.000000,-0.000006,0.000000
1229614233,1061,1911,1074,1098,1181,1061,1911,1074,1098,1181,-0.000001,0.000000,0.000000,0.000000,0.000000,0.000000,-0.000006,0.000000
1229714255,1061,1915,1073,1099,1181,1061,1915,1073,1099,1181,-0.000001,0.000000,0.000000,0.000000,0.000000,0.000000,-0.000006,0.000000
1229814268,1061,1915,1073,1099,1181,1061,1915,1073,1099,1181,-0.000001,0.000000,0.000000,0.000000,0.000000,0.000000,-0.000006,0.000000
1229914299,1061,1914,1073,1099,1181,1061,1914,1073,1099,1181,-0.000001,0.000000,0.000000,0.000000,0.000000,0.000000,-0.000006,0.000000
1230014321,1110,1768,1169,1189,1181,1110,1768,1169,1189,1181,-0.000001,0.000000,0.000000,0.000000,0.000000,0.000000,-0.000006,0.000000
1230114353,1403,1489,1392,1487,1181,1403,1489,1392,1487,1181,-0.000001,0.000000,0.000000,0.000000,0.000000,0.000000,-0.000006,0.000000
1230214371,1496,1485,1411,1498,1181,1496,1485,1411,1498,1181,-0.000001,0.000000,0.000000,0.000000,0.000000,0.000000,-0.000006,0.000000
1230314405,1497,1489,1441,1499,1181,1497,1489,1441,1499,1181,-0.000001,0.000000,0.000000,0.000000,0.000000,0.000000,-0.000006,0.000000
1230414420,1496,1492,1492,1498,1181,1496,1492,1492,1498,1181,-0.000001,0.000000,0.000000,0.000000,0.000000,0.000000,-0.000006,0.000000
1230514430,1496,1492,1492,1497,1181,1496,1492,1492,1497,1181,-0.000001,0.000000,0.000000,0.000000,0.000000,0.000000,-0.000006,0.000000
1230614459,1496,1492,1492,1497,1181,1496,1492,1492,1497,1181,-0.000001,0.000000,0.000000,0.000000,0.000000,0.000000,-0.000006,0.000000
1230714480,1496,1492,1492,1498,1181,1496,1492,1492,1498,1181,-0.000001,0.000000,0.000000,0.000000,0.000000,0.000000,-0.000006,0.000000
1230814489,1497,1490,1492,1498,1181,1497,1490,1492,1498,1181,-0.000001,0.000000,0.000000,0.000000,0.000000,0.000000,-0.000006,0.000000
1230914506,1496,1492,1492,1498,1181,1496,1492,1492,1498,1181,-0.000001,0.000000,0.000000,0.000000,0.000000,0.000000,-0.000006,0.000000
1231014538,1497,1489,1492,1499,1181,1497,1489,1492,1499,1181,-0.000001,0.000000,0.000000,0.000000,0.000000,0.000000,-0.000006,0.000000
1231114544,1496,1492,1491,1497,1181,1496,1492,1491,1497,1181,-0.000001,0.000000,0.000000,0.000000,0.000000,0.000000,-0.000006,0.000000
1231214566,1496,1492,1491,1497,1181,1496,1492,1491,1497,1181,-0.000001,0.000000,0.000000,0.000000,0.000000,0.000000,-0.000006,0.000000
1231314576,1499,1492,1492,1496,1181,1499,1492,1492,1496,1181,-0.000001,0.000000,0.000000,0.000000,0.000000,0.000000,-0.000006,0.000000
1231414595,1503,1492,1492,1496,1181,1503,1492,1492,1496,1181,-0.000001,0.000000,0.000000,0.000000,0.000000,0.000000,-0.000006,0.000000
1231514621,1510,1492,1492,1496,1181,1510,1492,1492,1496,1181,-0.000001,0.000000,0.000000,0.000000,0.000000,0.000000,-0.000006,0.000000
1231614638,1520,1498,1492,1496,1181,1520,1498,1492,1496,1181,-0.000001,0.000000,0.000000,0.000000,0.000000,0.000000,-0.000006,0.000000
1231714657,1530,1509,1492,1496,1181,1530,1509,1492,1496,1181,-0.000001,0.000000,0.000000,0.000000,0.000000,0.000000,-0.000006,0.000000
1231814701,1552,1512,1491,1496,1181,1552,1512,1491,1496,1181,-0.000001,0.000000,0.000000,0.000000,0.000000,0.000000,-0.000006,0.000000
1231914741,1554,1509,1492,1496,1181,1554,1509,1492,1496,1181,-0.000001,0.000000,0.000000,0.000000,0.000000,0.000000,-0.000006,0.000000
1232014750,1542,1509,1491,1495,1181,1542,1509,1491,1495,1181,-0.000001,0.000000,0.000000,0.000000,0.000000,0.000000,-0.000006,0.000000
1232114785,1531,1507,1491,1495,1181,1531,1507,1491,1495,1181,-0.000001,0.000000,0.000000,0.000000,0.000000,0.000000,-0.000006,0.000000
1232214823,1531,1507,1490,1495,1181,1531,1507,1490,1495,1181,-0.000001,0.000000,0.000000,0.000000,0.000000,0.000000,-0.000006,0.000000
1232314863,1532,1507,1491,1497,1180,1532,1507,1491,1497,1180,-0.000001,0.000000,0.000000,0.000000,0.000000,0.000000,-0.000006,0.000000
1232414895,1528,1509,1490,1495,1181,1528,1509,1490,1495,1181,-0.000001,0.000000,0.000000,0.000000,0.000000,0.000000,-0.000006,0.000000
1232514901,1523,1509,1490,1496,1181,1523,1509,1490,1496,1181,-0.000001,0.000000,0.000000,0.000000,0.000000,0.000000,-0.000006,0.000000
1232614943,1565,1511,1490,1497,1181,1565,1511,1490,1497,1181,-0.000001,0.000000,0.000000,0.000000,0.000000,0.000000,-0.000006,0.000000
1232714968,1575,1512,1490,1497,1181,1575,1512,1490,1497,1181,-0.000001,0.000000,0.000000,0.000000,0.000000,0.000000,-0.000006,0.000000
1232814981,1565,1515,1490,1497,1181,1565,1515,1490,1497,1181,-0.000001,0.000000,0.000000,0.000000,0.000000,0.000000,-0.000006,0.000000
1232915001,1558,1516,1491,1498,1181,1558,1516,1491,1498,1181,-0.000001,0.000000,0.000000,0.000000,0.000000,0.000000,-0.000006,0.000000
1233015018,1559,1516,1491,1498,1181,1559,1516,1491,1498,1181,-0.000001,0.000000,0.000000,0.000000,0.000000,0.000000,-0.000006,0.000000
1233115047,1563,1519,1490,1496,1181,1563,1519,1490,1496,1181,-0.000001,0.000000,0.000000,0.000000,0.000000,0.000000,-0.000006,0.000000
1233215099,1566,1518,1491,1497,1181,1566,1518,1491,1497,1181,-0.000001,0.000000,0.000000,0.000000,0.000000,0.000000,-0.000006,0.000000
1233315100,1570,1525,1491,1497,1181,1570,1525,1491,1497,1181,-0.000001,0.000000,0.000000,0.000000,0.000000,0.000000,-0.000006,0.000000
1233415113,1583,1526,1490,1496,1181,1583,1526,1490,1496,1181,-0.000001,0.000000,0.000000,0.000000,0.000000,0.000000,-0.000006,0.000000
1233515130,1587,1526,1490,1496,1181,1587,1526,1490,1496,1181,-0.000001,0.000000,0.000000,0.000000,0.000000,0.000000,-0.000006,0.000000
1233615137,1588,1526,1490,1496,1181,1588,1526,1490,1496,1181,-0.000001,0.000000,0.000000,0.000000,0.000000,0.000000,-0.000006,0.000000
1233715165,1589,1526,1491,1497,1181,1589,1526,1491,1497,1181,-0.000001,0.000000,0.000000,0.000000,0.000000,0.000000,-0.000006,0.000000
1233815193,1588,1526,1491,1496,1181,1588,1526,1491,1496,1181,-0.000001,0.000000,0.000000,0.000000,0.000000,0.000000,-0.000006,0.000000
1233915200,1588,1526,1490,1496,1181,1588,1526,1490,1496,1181,-0.000001,0.000000,0.000000,0.000000,0.000000,0.000000,-0.000006,0.000000
1234015204,1588,1526,1490,1496,1181,1588,1526,1490,1496,1181,-0.000001,0.000000,0.000000,0.000000,0.000000,0.000000,-0.000006,0.000000
1234115233,1588,1526,1490,1496,1181,1588,1526,1490,1496,1181,-0.000001,0.000000,0.000000,0.000000,0.000000,0.000000,-0.000006,0.000000
1234215264,1588,1525,1491,1497,1180,1588,1525,1491,1497,1180,-0.000001,0.000000,0.000000,0.000000,0.000000,0.000000,-0.000006,0.000000
1234315285,1588,1525,1491,1496,1181,1588,1525,1491,1496,1181,-0.000001,0.000000,0.000000,0.000000,0.000000,0.000000,-0.000006,0.000000
1234415306,1588,1525,1491,1496,1181,1588,1525,1491,1496,1181,-0.000001,0.000000,0.000000,0.000000,0.000000,0.000000,-0.000006,0.000000
1234515332,1588,1525,1490,1496,1181,1588,1525,1490,1496,1181,-0.000001,0.000000,0.000000,0.000000,0.000000,0.000000,-0.000006,0.000000
1234615336,1588,1526,1490,1496,1181,1588,1526,1490,1496,1181,-0.000001,0.000000,0.000000,0.000000,0.000000,0.000000,-0.000006,0.000000
1234715358,1588,1526,1491,1497,1181,1588,1526,1491,1497,1181,-0.000001,0.000000,0.000000,0.000000,0.000000,0.000000,-0.000006,0.000000
1234815374,1588,1526,1490,1496,1180,1588,1526,1490,1496,1180,-0.000001,0.000000,0.000000,0.000000,0.000000,0.000000,-0.000006,0.000000
1234915392,1587,1526,1491,1496,1181,1587,1526,1491,1496,1181,-0.000001,0.000000,0.000000,0.000000,0.000000,0.000000,-0.000006,0.000000
1235015415,1578,1523,1490,1496,1181,1578,1523,1490,1496,1181,-0.000001,0.000000,0.000000,0.000000,0.000000,0.000000,-0.000006,0.000000
1235115419,1569,1519,1484,1496,1181,1569,1519,1484,1496,1181,-0.000001,0.000000,0.000000,0.000000,0.000000,0.000000,-0.000006,0.000000
1235215440,1564,1542,1468,1496,1181,1564,1542,1468,1496,1181,-0.000001,0.000000,0.000000,0.000000,0.000000,0.000000,-0.000006,0.000000
1235315445,1571,1548,1470,1497,1181,1571,1548,1470,1497,1181,-0.000001,0.000000,0.000000,0.000000,0.000000,0.000000,-0.000006,0.000000
1235415460,1576,1534,1491,1496,1181,1576,1534,1491,1496,1181,-0.000001,0.000000,0.000000,0.000000,0.000000,0.000000,-0.000006,0.000000
1235515489,1587,1509,1492,1496,1181,1587,1509,1492,1496,1181,-0.000001,0.000000,0.000000,0.000000,0.000000,0.000000,-0.000006,0.000000
1235615505,1588,1506,1492,1497,1181,1588,1506,1492,1497,1181,-0.000001,0.000000,0.000000,0.000000,0.000000,0.000000,-0.000006,0.000000
1235715540,1592,1509,1492,1496,1181,1592,1509,1492,1496,1181,-0.000001,0.000000,0.000000,0.000000,0.000000,0.000000,-0.000006,0.000000
1235815555,1596,1512,1492,1497,1181,1596,1512,1492,1497,1181,-0.000001,0.000000,0.000000,0.000000,0.000000,0.000000,-0.000006,0.000000
1235915575,1602,1512,1492,1497,1180,1602,1512,1492,1497,1180,-0.000001,0.000000,0.000000,0.000000,0.000000,0.000000,-0.000006,0.000000
1236015603,1604,1514,1492,1497,1181,1604,1514,1492,1497,1181,-0.000001,0.000000,0.000000,0.000000,0.000000,0.000000,-0.000006,0.000000
1236115630,1606,1512,1491,1496,1181,1606,1512,1491,1496,1181,-0.000001,0.000000,0.000000,0.000000,0.000000,0.000000,-0.000006,0.000000
1236215663,1608,1507,1491,1497,1181,1608,1507,1491,1497,1181,-0.000001,0.000000,0.000000,0.000000,0.000000,0.000000,-0.000006,0.000000
1236315668,1608,1502,1491,1496,1181,1608,1502,1491,1496,1181,-0.000001,0.000000,0.000000,0.000000,0.000000,0.000000,-0.000006,0.000000
1236415672,1608,1492,1491,1496,1181,1608,1492,1491,1496,1181,-0.000001,0.000000,0.000000,0.000000,0.000000,0.000000,-0.000006,0.000000
1236515698,1609,1490,1491,1496,1181,1609,1490,1491,1496,1181,-0.000001,0.000000,0.000000,0.000000,0.000000,0.000000,-0.000006,0.000000
1236615699,1610,1490,1492,1497,1181,1610,1490,1492,1497,1181,-0.000001,0.000000,0.000000,0.000000,0.000000,0.000000,-0.000006,0.000000
1236715727,1609,1489,1492,1496,1181,1609,1489,1492,1496,1181,-0.000001,0.000000,0.000000,0.000000,0.000000,0.000000,-0.000006,0.000000
1236815742,1610,1490,1492,1496,1181,1610,1490,1492,1496,1181,-0.000001,0.000000,0.000000,0.000000,0.000000,0.000000,-0.000006,0.000000
1236915763,1613,1492,1492,1496,1181,1613,1492,1492,1496,1181,-0.000001,0.000000,0.000000,0.000000,0.000000,0.000000,-0.000006,0.000000
1237015771,1613,1492,1492,1496,1181,1613,1492,1492,1496,1181,-0.000001,0.000000,0.000000,0.000000,0.000000,0.000000,-0.000006,0.000000
1237115806,1613,1492,1492,1496,1181,1613,1492,1492,1496,1181,-0.000001,0.000000,0.000000,0.000000,0.000000,0.000000,-0.000006,0.000000
1237215817,1613,1492,1492,1496,1181,1613,1492,1492,1496,1181,-0.000001,0.000000,0.000000,0.000000,0.000000,0.000000,-0.000006,0.000000
1237315831,1613,1492,1492,1497,1181,1613,1492,1492,1497,1181,-0.000001,0.000000,0.000000,0.000000,0.000000,0.000000,-0.000006,0.000000
1237415853,1618,1491,1492,1496,1181,1618,1491,1492,1496,1181,-0.000001,0.000000,0.000000,0.000000,0.000000,0.000000,-0.000006,0.000000
1237515869,1618,1491,1492,1496,1181,1618,1491,1492,1496,1181,-0.000001,0.000000,0.000000,0.000000,0.000000,0.000000,-0.000006,0.000000
1237615871,1620,1492,1492,1496,1181,1620,1492,1492,1496,1181,-0.000001,0.000000,0.000000,0.000000,0.000000,0.000000,-0.000006,0.000000
1237715907,1621,1491,1492,1496,1181,1621,1491,1492,1496,1181,-0.000001,0.000000,0.000000,0.000000,0.000000,0.000000,-0.000006,0.000000
1237815929,1621,1492,1492,1496,1181,1621,1492,1492,1496,1181,-0.000001,0.000000,0.000000,0.000000,0.000000,0.000000,-0.000006,0.000000
1237915960,1620,1494,1492,1497,1180,1620,1494,1492,1497,1180,-0.000001,0.000000,0.000000,0.000000,0.000000,0.000000,-0.000006,0.000000
1238015990,1620,1494,1492,1496,1181,1620,1494,1492,1496,1181,-0.000001,0.000000,0.000000,0.000000,0.000000,0.000000,-0.000006,0.000000
1238116010,1618,1494,1492,1497,1181,1618,1494,1492,1497,1181,-0.000001,0.000000,0.000000,0.000000,0.000000,0.000000,-0.000006,0.000000
1238216023,1613,1511,1492,1496,1181,1613,1511,1492,1496,1181,-0.000001,0.000000,0.000000,0.000000,0.000000,0.000000,-0.000006,0.000000
1238316031,1613,1539,1492,1496,1181,1613,1539,1492,1496,1181,-0.000001,0.000000,0.000000,0.000000,0.000000,0.000000,-0.000006,0.000000
1238416038,1613,1572,1492,1496,1181,1613,1572,1492,1496,1181,-0.000001,0.000000,0.000000,0.000000,0.000000,0.000000,-0.000006,0.000000
1238516064,1599,1595,1492,1496,1181,1599,1595,1492,1496,1181,-0.000001,0.000000,0.000000,0.000000,0.000000,0.000000,-0.000006,0.000000
1238616082,1563,1612,1492,1496,1181,1563,1612,1492,1496,1181,-0.000001,0.000000,0.000000,0.000000,0.000000,0.000000,-0.000006,0.000000
1238716088,1531,1587,1492,1497,1181,1531,1587,1492,1497,1181,-0.000001,0.000000,0.000000,0.000000,0.000000,0.000000,-0.000006,0.000000
1238816100,1500,1488,1492,1497,1181,1500,1488,1492,1497,1181,-0.000001,0.000000,0.000000,0.000000,0.000000,0.000000,-0.000006,0.000000
1238916116,1496,1439,1491,1496,1181,1496,1439,1491,1496,1181,-0.000001,0.000000,0.000000,0.000000,0.000000,0.000000,-0.000006,0.000000
1239016123,1496,1397,1492,1496,1181,1496,1397,1492,1496,1181,-0.000001,0.000000,0.000000,0.000000,0.000000,0.000000,-0.000006,0.000000
1239116146,1496,1390,1492,1496,1181,1496,1390,1492,1496,1181,-0.000001,0.000000,0.000000,0.000000,0.000000,0.000000,-0.000006,0.000000
1239216180,1496,1412,1491,1496,1181,1496,1412,1491,1496,1181,-0.000001,0.000000,0.000000,0.000000,0.000000,0.000000,-0.000006,0.000000
1239316186,1497,1434,1492,1497,1181,1497,1434,1492,1497,1181,-0.000001,0.000000,0.000000,0.000000,0.000000,0.000000,-0.000006,0.000000
1239416207,1497,1452,1492,1497,1181,1497,1452,1492,1497,1181,-0.000001,0.000000,0.000000,0.000000,0.000000,0.000000,-0.000006,0.000000
1239516234,1496,1477,1492,1496,1181,1496,1477,1492,1496,1181,-0.000001,0.000000,0.000000,0.000000,0.000000,0.000000,-0.000006,0.000000
1239616239,1496,1488,1492,1496,1181,1496,1488,1492,1496,1181,-0.000001,0.000000,0.000000,0.000000,0.000000,0.000000,-0.000006,0.000000
1239716250,1496,1494,1491,1496,1181,1496,1494,1491,1496,1181,-0.000001,0.000000,0.000000,0.000000,0.000000,0.000000,-0.000006,0.000000
1239816282,1497,1525,1492,1497,1181,1497,1525,1492,1497,1181,-0.000001,0.000000,0.000000,0.000000,0.000000,0.000000,-0.000006,0.000000
1239916314,1496,1538,1492,1495,1181,1496,1538,1492,1495,1181,-0.000001,0.000000,0.000000,0.000000,0.000000,0.000000,-0.000006,0.000000
1240016319,1506,1551,1492,1495,1181,1506,1551,1492,1495,1181,-0.000001,0.000000,0.000000,0.000000,0.000000,0.000000,-0.000006,0.000000
1240116337,1533,1557,1492,1496,1181,1533,1557,1492,1496,1181,-0.000001,0.000000,0.000000,0.000000,0.000000,0.000000,-0.000006,0.000000
1240216373,1542,1557,1491,1496,1181,1542,1557,1491,1496,1181,-0.000001,0.000000,0.000000,0.000000,0.000000,0.000000,-0.000006,0.000000
1240316387,1552,1526,1491,1496,1181,1552,1526,1491,1496,1181,-0.000001,0.000000,0.000000,0.000000,0.000000,0.000000,-0.000006,0.000000
1240416404,1556,1495,1489,1496,1181,1556,1495,1489,1496,1181,-0.000001,0.000000,0.000000,0.000000,0.000000,0.000000,-0.000006,0.000000
1240516414,1552,1489,1479,1496,1181,1552,1489,1479,1496,1181,-0.000001,0.000000,0.000000,0.000000,0.000000,0.000000,-0.000006,0.000000
1240616440,1552,1489,1456,1496,1181,1552,1489,1456,1496,1181,-0.000001,0.000000,0.000000,0.000000,0.000000,0.000000,-0.000006,0.000000
1240716462,1561,1494,1451,1497,1181,1561,1494,1451,1497,1181,-0.000001,0.000000,0.000000,0.000000,0.000000,0.000000,-0.000006,0.000000
1240816488,1563,1510,1492,1496,1181,1563,1510,1492,1496,1181,-0.000001,0.000000,0.000000,0.000000,0.000000,0.000000,-0.000006,0.000000
1240916500,1565,1538,1493,1497,1181,1565,1538,1493,1497,1181,-0.000001,0.000000,0.000000,0.000000,0.000000,0.000000,-0.000006,0.000000
1241016532,1564,1516,1502,1496,1181,1564,1516,1502,1496,1181,-0.000001,0.000000,0.000000,0.000000,0.000000,0.000000,-0.000006,0.000000
1241116551,1565,1502,1492,1497,1181,1565,1502,1492,1497,1181,-0.000001,0.000000,0.000000,0.000000,0.000000,0.000000,-0.000006,0.000000
1241216571,1565,1506,1492,1496,1181,1565,1506,1492,1496,1181,-0.000001,0.000000,0.000000,0.000000,0.000000,0.000000,-0.000006,0.000000
1241316599,1566,1512,1491,1496,1181,1566,1512,1491,1496,1181,-0.000001,0.000000,0.000000,0.000000,0.000000,0.000000,-0.000006,0.000000
1241416625,1566,1509,1492,1497,1181,1566,1509,1492,1497,1181,-0.000001,0.000000,0.000000,0.000000,0.000000,0.000000,-0.000006,0.000000
1241516652,1566,1510,1492,1497,1181,1566,1510,1492,1497,1181,-0.000001,0.000000,0.000000,0.000000,0.000000,0.000000,-0.000006,0.000000
1241616679,1566,1512,1492,1497,1181,1566,1512,1492,1497,1181,-0.000001,0.000000,0.000000,0.000000,0.000000,0.000000,-0.000006,0.000000
1241716690,1566,1524,1491,1496,1181,1566,1524,1491,1496,1181,-0.000001,0.000000,0.000000,0.000000,0.000000,0.000000,-0.000006,0.000000
1241816692,1566,1534,1491,1497,1181,1566,1534,1491,1497,1181,-0.000001,0.000000,0.000000,0.000000,0.000000,0.000000,-0.000006,0.000000
1241916723,1566,1545,1491,1496,1181,1566,1545,1491,1496,1181,-0.000001,0.000000,0.000000,0.000000,0.000000,0.000000,-0.000006,0.000000
1242016738,1566,1529,1491,1496,1181,1566,1529,1491,1496,1181,-0.000001,0.000000,0.000000,0.000000,0.000000,0.000000,-0.000006,0.000000
1242116787,1566,1496,1492,1497,1181,1566,1496,1492,1497,1181,-0.000001,0.000000,0.000000,0.000000,0.000000,0.000000,-0.000006,0.000000
1242216793,1561,1492,1492,1496,1181,1561,1492,1492,1496,1181,-0.000001,0.000000,0.000000,0.000000,0.000000,0.000000,-0.000006,0.000000
1242316809,1533,1491,1492,1496,1181,1533,1491,1492,1496,1181,-0.000001,0.000000,0.000000,0.000000,0.000000,0.000000,-0.000006,0.000000
1242416826,1506,1492,1492,1497,1181,1506,1492,1492,1497,1181,-0.000001,0.000000,0.000000,0.000000,0.000000,0.000000,-0.000006,0.000000
1242516844,1496,1520,1525,1496,1854,1500,1500,1500,1500,0,-0.000001,0.000000,0.000000,0.000000,0.000000,0.000000,-0.000006,0.000000
1242616872,1497,1519,1538,1496,1854,1500,1500,1500,1500,0,-0.000001,0.000000,0.000000,0.000000,0.000000,0.000000,-0.000006,0.000000
1242716876,1496,1492,1509,1498,1854,1500,1500,1500,1500,0,-0.000001,0.000000,0.000000,0.000000,0.000000,0.000000,-0.000006,0.000000
1242816898,1497,1490,1492,1498,1854,1500,1500,1500,1500,0,-0.000001,0.000000,0.000000,0.000000,0.000000,0.000000,-0.000006,0.000000
1242916931,1496,1492,1492,1497,1855,1500,1500,1500,1500,0,-0.000001,0.000000,0.000000,0.000000,0.000000,0.000000,-0.000006,0.000000
1243016966,1496,1490,1492,1497,1854,1500,1500,1500,1500,0,-0.000001,0.000000,0.000000,0.000000,0.000000,0.000000,-0.000006,0.000000
1243116988,1496,1489,1492,1497,1854,1500,1500,1500,1500,0,-0.000001,0.000000,0.000000,0.000000,0.000000,0.000000,-0.000006,0.000000
1243216997,1497,1490,1492,1497,1854,1500,1500,1500,1500,0,-0.000001,0.000000,0.000000,0.000000,0.000000,0.000000,-0.000006,0.000000
1243317015,1496,1489,1492,1496,1855,1500,1500,1500,1500,0,-0.000001,0.000000,0.000000,0.000000,0.000000,0.000000,-0.000006,0.000000
1243417022,1496,1490,1492,1497,1854,1500,1500,1500,1500,0,-0.000001,0.000000,0.000000,0.000000,0.000000,0.000000,-0.000006,0.000000
1243517037,1496,1492,1492,1496,1855,1500,1500,1500,1500,0,-0.000001,0.000000,0.000000,0.000000,0.000000,0.000000,-0.000006,0.000000
1243617062,1496,1492,1492,1497,1855,1500,1500,1500,1500,0,-0.000001,0.000000,0.000000,0.000000,0.000000,0.000000,-0.000006,0.000000
1243717093,1497,1490,1492,1497,1854,1500,1500,1500,1500,0,-0.000001,0.000000,0.000000,0.000000,0.000000,0.000000,-0.000006,0.000000
1243817122,1496,1489,1492,1496,1854,1500,1500,1500,1500,0,-0.000001,0.000000,0.000000,0.000000,0.000000,0.000000,-0.000006,0.000000
1243917143,1496,1490,1491,1496,1854,1500,1500,1500,1500,0,-0.000001,0.000000,0.000000,0.000000,0.000000,0.000000,-0.000006,0.000000
1244017158,1496,1492,1492,1496,1854,1500,1500,1500,1500,0,-0.000001,0.000000,0.000000,0.000000,0.000000,0.000000,-0.000006,0.000000
1244117176,1496,1490,1491,1497,1854,1500,1500,1500,1500,0,-0.000001,0.000000,0.000000,0.000000,0.000000,0.000000,-0.000006,0.000000
1244217212,1496,1489,1492,1496,1855,1500,1500,1500,1500,0,-0.000001,0.000000,0.000000,0.000000,0.000000,0.000000,-0.000006,0.000000
1244317218,1497,1492,1491,1497,1854,1500,1500,1500,1500,0,-0.000001,0.000000,0.000000,0.000000,0.000000,0.000000,-0.000006,0.000000
1244417227,1496,1492,1492,1496,1855,1500,1500,1500,1500,0,-0.000001,0.000000,0.000000,0.000000,0.000000,0.000000,-0.000006,0.000000
1244517233,1496,1492,1492,1496,1855,1500,1500,1500,1500,0,-0.000001,0.000000,0.000000,0.000000,0.000000,0.000000,-0.000006,0.000000
1244617254,1496,1491,1492,1496,1855,1500,1500,1500,1500,0,-0.000001,0.000000,0.000000,0.000000,0.000000,0.000000,-0.000006,0.000000
1244717285,1496,1491,1492,1496,1855,1500,1500,1500,1500,0,-0.000001,0.000000,0.000000,0.000000,0.000000,0.000000,-0.000006,0.000000
1244817323,1496,1492,1492,1496,1855,1500,1500,1500,1500,0,-0.000001,0.000000,0.000000,0.000000,0.000000,0.000000,-0.000006,0.000000
1244917339,1497,1492,1492,1497,1854,1500,1500,1500,1500,0,-0.000001,0.000000,0.000000,0.000000,0.000000,0.000000,-0.000006,0.000000
1245017365,1496,1492,1491,1496,1854,1500,1500,1500,1500,0,-0.000001,0.000000,0.000000,0.000000,0.000000,0.000000,-0.000006,0.000000
1245117396,1496,1491,1492,1496,1855,1500,1500,1500,1500,0,-0.000001,0.000000,0.000000,0.000000,0.000000,0.000000,-0.000006,0.000000
1245217419,1496,1492,1492,1496,1855,1500,1500,1500,1500,0,-0.000001,0.000000,0.000000,0.000000,0.000000,0.000000,-0.000006,0.000000
1245317439,1496,1492,1492,1496,1855,1500,1500,1500,1500,0,-0.000001,0.000000,0.000000,0.000000,0.000000,0.000000,-0.000006,0.000000
1245417459,1496,1492,1492,1496,1854,1500,1500,1500,1500,0,-0.000001,0.000000,0.000000,0.000000,0.000000,0.000000,-0.000006,0.000000
1245517466,1497,1492,1492,1497,1854,1500,1500,1500,1500,0,-0.000001,0.000000,0.000000,0.000000,0.000000,0.000000,-0.000006,0.000000
1245617485,1497,1492,1492,1497,1855,1500,1500,1500,1500,0,-0.000001,0.000000,0.000000,0.000000,0.000000,0.000000,-0.000006,0.000000
1245717514,1496,1492,1492,1496,1855,1500,1500,1500,1500,0,-0.000001,0.000000,0.000000,0.000000,0.000000,0.000000,-0.000006,0.000000
1245817541,1496,1491,1492,1496,1855,1500,1500,1500,1500,0,-0.000001,0.000000,0.000000,0.000000,0.000000,0.000000,-0.000006,0.000000
1245917553,1496,1492,1492,1496,1854,1500,1500,1500,1500,0,-0.000001,0.000000,0.000000,0.000000,0.000000,0.000000,-0.000006,0.000000
1246017586,1496,1492,1492,1496,1854,1500,1500,1500,1500,0,-0.000001,0.000000,0.000000,0.000000,0.000000,0.000000,-0.000006,0.000000
1246117606,1496,1492,1492,1496,1855,1500,1500,1500,1500,0,-0.000001,0.000000,0.000000,0.000000,0.000000,0.000000,-0.000006,0.000000
1246217630,1496,1492,1491,1496,1854,1500,1500,1500,1500,0,-0.000001,0.000000,0.000000,0.000000,0.000000,0.000000,-0.000006,0.000000
1246317657,1496,1492,1491,1496,1854,1500,1500,1500,1500,0,-0.000001,0.000000,0.000000,0.000000,0.000000,0.000000,-0.000006,0.000000
1246417684,1497,1492,1492,1497,1854,1500,1500,1500,1500,0,-0.000001,0.000000,0.000000,0.000000,0.000000,0.000000,-0.000006,0.000000
1246517696,1496,1492,1492,1496,1855,1500,1500,1500,1500,0,-0.000001,0.000000,0.000000,0.000000,0.000000,0.000000,-0.000006,0.000000
1246617722,1496,1492,1492,1496,1854,1500,1500,1500,1500,0,-0.000001,0.000000,0.000000,0.000000,0.000000,0.000000,-0.000006,0.000000
1246717724,1497,1492,1492,1497,1855,1500,1500,1500,1500,0,-0.000001,0.000000,0.000000,0.000000,0.000000,0.000000,-0.000006,0.000000
1246817745,1496,1492,1492,1496,1855,1500,1500,1500,1500,0,-0.000001,0.000000,0.000000,0.000000,0.000000,0.000000,-0.000006,0.000000
1246917758,1496,1491,1492,1496,1855,1500,1500,1500,1500,0,-0.000001,0.000000,0.000000,0.000000,0.000000,0.000000,-0.000006,0.000000
1247017760,1496,1492,1492,1496,1854,1500,1500,1500,1500,0,-0.000001,0.000000,0.000000,0.000000,0.000000,0.000000,-0.000006,0.000000
1247117767,1496,1492,1492,1496,1854,1500,1500,1500,1500,0,-0.000001,0.000000,0.000000,0.000000,0.000000,0.000000,-0.000006,0.000000
1247217776,1497,1492,1492,1497,1854,1500,1500,1500,1500,0,-0.000001,0.000000,0.000000,0.000000,0.000000,0.000000,-0.000006,0.000000
1247317811,1496,1491,1492,1496,1855,1500,1500,1500,1500,0,-0.000001,0.000000,0.000000,0.000000,0.000000,0.000000,-0.000006,0.000000
1247417844,1497,1492,1492,1497,1854,1500,1500,1500,1500,0,-0.000001,0.000000,0.000000,0.000000,0.000000,0.000000,-0.000006,0.000000
1247517874,1497,1492,1492,1497,1854,1500,1500,1500,1500,0,-0.000001,0.000000,0.000000,0.000000,0.000000,0.000000,-0.000006,0.000000
1247617915,1497,1492,1492,1497,1854,1500,1500,1500,1500,0,-0.000001,0.000000,0.000000,0.000000,0.000000,0.000000,-0.000006,0.000000
1247717924,1496,1492,1491,1495,1181,1496,1492,1491,1495,1181,-0.000001,0.000000,0.000000,0.000000,0.000000,0.000000,-0.000006,0.000000
1247817950,1497,1492,1492,1492,1181,1497,1492,1492,1492,1181,-0.000001,0.000000,0.000000,0.000000,0.000000,0.000000,-0.000006,0.000000
1247917951,1503,1492,1491,1495,1181,1503,1492,1491,1495,1181,-0.000001,0.000000,0.000000,0.000000,0.000000,0.000000,-0.000006,0.000000
1248017973,1582,1491,1492,1503,1181,1582,1491,1492,1503,1181,-0.000001,0.000000,0.000000,0.000000,0.000000,0.000000,-0.000006,0.000000
1248117999,1622,1494,1492,1497,1181,1622,1494,1492,1497,1181,-0.000001,0.000000,0.000000,0.000000,0.000000,0.000000,-0.000006,0.000000
1248218013,1592,1492,1491,1496,1181,1592,1492,1491,1496,1181,-0.000001,0.000000,0.000000,0.000000,0.000000,0.000000,-0.000006,0.000000
1248318042,1592,1492,1492,1496,1181,1592,1492,1492,1496,1181,-0.000001,0.000000,0.000000,0.000000,0.000000,0.000000,-0.000006,0.000000
1248418067,1588,1495,1491,1497,1181,1588,1495,1491,1497,1181,-0.000001,0.000000,0.000000,0.000000,0.000000,0.000000,-0.000006,0.000000
1248518098,1549,1494,1491,1497,1181,1549,1494,1491,1497,1181,-0.000001,0.000000,0.000000,0.000000,0.000000,0.000000,-0.000006,0.000000
1248618112,1526,1492,1490,1497,1181,1526,1492,1490,1497,1181,-0.000001,0.000000,0.000000,0.000000,0.000000,0.000000,-0.000006,0.000000
1248718122,1515,1491,1491,1497,1181,1515,1491,1491,1497,1181,-0.000001,0.000000,0.000000,0.000000,0.000000,0.000000,-0.000006,0.000000
1248818155,1499,1494,1466,1497,1181,1499,1494,1466,1497,1181,-0.000001,0.000000,0.000000,0.000000,0.000000,0.000000,-0.000006,0.000000
1248918164,1496,1494,1405,1496,1181,1496,1494,1405,1496,1181,-0.000001,0.000000,0.000000,0.000000,0.000000,0.000000,-0.000006,0.000000
1249018186,1496,1494,1402,1496,1181,1496,1494,1402,1496,1181,-0.000001,0.000000,0.000000,0.000000,0.000000,0.000000,-0.000006,0.000000
1249118197,1496,1494,1402,1496,1181,1496,1494,1402,1496,1181,-0.000001,0.000000,0.000000,0.000000,0.000000,0.000000,-0.000006,0.000000
1249218204,1496,1494,1405,1496,1181,1496,1494,1405,1496,1181,-0.000001,0.000000,0.000000,0.000000,0.000000,0.000000,-0.000006,0.000000
1249318205,1496,1492,1416,1496,1181,1496,1492,1416,1496,1181,-0.000001,0.000000,0.000000,0.000000,0.000000,0.000000,-0.000006,0.000000
1249418220,1497,1491,1473,1497,1181,1497,1491,1473,1497,1181,-0.000001,0.000000,0.000000,0.000000,0.000000,0.000000,-0.000006,0.000000
1249518243,1496,1490,1536,1495,1181,1496,1490,1536,1495,1181,-0.000001,0.000000,0.000000,0.000000,0.000000,0.000000,-0.000006,0.000000
1249618275,1496,1488,1573,1495,1181,1496,1488,1573,1495,1181,-0.000001,0.000000,0.000000,0.000000,0.000000,0.000000,-0.000006,0.000000
1249718286,1496,1486,1576,1495,1181,1496,1486,1576,1495,1181,-0.000001,0.000000,0.000000,0.000000,0.000000,0.000000,-0.000006,0.000000
1249818314,1497,1490,1537,1495,1181,1497,1490,1537,1495,1181,-0.000001,0.000000,0.000000,0.000000,0.000000,0.000000,-0.000006,0.000000
1249918328,1496,1489,1492,1495,1181,1496,1489,1492,1495,1181,-0.000001,0.000000,0.000000,0.000000,0.000000,0.000000,-0.000006,0.000000
1250018331,1497,1490,1491,1495,1181,1497,1490,1491,1495,1181,-0.000001,0.000000,0.000000,0.000000,0.000000,0.000000,-0.000006,0.000000
1250118339,1496,1488,1491,1495,1181,1496,1488,1491,1495,1181,-0.000001,0.000000,0.000000,0.000000,0.000000,0.000000,-0.000006,0.000000
1250218362,1496,1486,1490,1495,1181,1496,1486,1490,1495,1181,-0.000001,0.000000,0.000000,0.000000,0.000000,0.000000,-0.000006,0.000000
1250318384,1496,1486,1491,1493,1181,1496,1486,1491,1493,1181,-0.000001,0.000000,0.000000,0.000000,0.000000,0.000000,-0.000006,0.000000
1250418393,1497,1486,1491,1492,1181,1497,1486,1491,1492,1181,-0.000001,0.000000,0.000000,0.000000,0.000000,0.000000,-0.000006,0.000000
1250518425,1494,1486,1491,1491,1181,1494,1486,1491,1491,1181,-0.000001,0.000000,0.000000,0.000000,0.000000,0.000000,-0.000006,0.000000
1250618433,1464,1485,1490,1482,1181,1464,1485,1490,1482,1181,-0.000001,0.000000,0.000000,0.000000,0.000000,0.000000,-0.000006,0.000000
1250718441,1424,1486,1491,1481,1181,1424,1486,1491,1481,1181,-0.000001,0.000000,0.000000,0.000000,0.000000,0.000000,-0.000006,0.000000
1250818446,1374,1482,1491,1460,1180,1374,1482,1491,1460,1180,-0.000001,0.000000,0.000000,0.000000,0.000000,0.000000,-0.000006,0.000000
1250918461,1362,1481,1491,1458,1180,1362,1481,1491,1458,1180,-0.000001,0.000000,0.000000,0.000000,0.000000,0.000000,-0.000006,0.000000
1251018484,1347,1481,1491,1435,1181,1347,1481,1491,1435,1181,-0.000001,0.000000,0.000000,0.000000,0.000000,0.000000,-0.000006,0.000000
1251118506,1351,1481,1490,1438,1181,1351,1481,1490,1438,1181,-0.000001,0.000000,0.000000,0.000000,0.000000,0.000000,-0.000006,0.000000
1251218544,1350,1481,1490,1438,1181,1350,1481,1490,1438,1181,-0.000001,0.000000,0.000000,0.000000,0.000000,0.000000,-0.000006,0.000000
1251318551,1344,1481,1491,1437,1180,1344,1481,1491,1437,1180,-0.000001,0.000000,0.000000,0.000000,0.000000,0.000000,-0.000006,0.000000
1251418557,1309,1482,1490,1421,1181,1309,1482,1490,1421,1181,-0.000001,0.000000,0.000000,0.000000,0.000000,0.000000,-0.000006,0.000000
1251518584,1247,1482,1490,1368,1181,1247,1482,1490,1368,1181,-0.000001,0.000000,0.000000,0.000000,0.000000,0.000000,-0.000006,0.000000
1251618602,1133,1478,1479,1310,1181,1133,1478,1479,1310,1181,-0.000001,0.000000,0.000000,0.000000,0.000000,0.000000,-0.000006,0.000000
1251718614,1060,1477,1477,1303,1181,1060,1477,1477,1303,1181,-0.000001,0.000000,0.000000,0.000000,0.000000,0.000000,-0.000006,0.000000
1251818635,1060,1478,1485,1303,1181,1060,1478,1485,1303,1181,-0.000001,0.000000,0.000000,0.000000,0.000000,0.000000,-0.000006,0.000000
1251918667,1061,1480,1408,1305,1181,1061,1480,1408,1305,1181,-0.000001,0.000000,0.000000,0.000000,0.000000,0.000000,-0.000006,0.000000
1252018698,1061,1525,1096,1309,1181,1061,1525,1096,1309,1181,-0.000001,0.000000,0.000000,0.000000,0.000000,0.000000,-0.000006,0.000000
1252118722,1060,1745,1073,1107,1181,1060,1745,1073,1107,1181,-0.000001,0.000000,0.000000,0.000000,0.000000,0.000000,-0.000006,0.000000
1252218758,1061,1906,1073,1104,1181,1061,1906,1073,1104,1181,-0.000001,0.000000,0.000000,0.000000,0.000000,0.000000,-0.000006,0.000000
1252318774,1061,1912,1073,1103,1181,1061,1912,1073,1103,1181,-0.000001,0.000000,0.000000,0.000000,0.000000,0.000000,-0.000006,0.000000
1252418797,1060,1912,1073,1103,1181,1060,1912,1073,1103,1181,-0.000001,0.000000,0.000000,0.000000,0.000000,0.000000,-0.000006,0.000000
1252518798,1061,1912,1074,1104,1181,1061,1912,1074,1104,1181,-0.000001,0.000000,0.000000,0.000000,0.000000,0.000000,-0.000006,0.000000
1252618809,1061,1912,1073,1103,1181,1061,1912,1073,1103,1181,-0.000001,0.000000,0.000000,0.000000,0.000000,0.000000,-0.000006,0.000000
1252718841,1060,1912,1073,1103,1180,1060,1912,1073,1103,1180,-0.000001,0.000000,0.000000,0.000000,0.000000,0.000000,-0.000006,0.000000
1252818873,1060,1912,1074,1103,1180,1060,1912,1074,1103,1180,-0.000001,0.000000,0.000000,0.000000,0.000000,0.000000,-0.000006,0.000000
1252918908,1060,1912,1073,1103,1181,1060,1912,1073,1103,1181,-0.000001,0.000000,0.000000,0.000000,0.000000,0.000000,-0.000006,0.000000
1253018934,1061,1912,1074,1101,1181,1061,1912,1074,1101,1181,-0.000001,0.000000,0.000000,0.000000,0.000000,0.000000,-0.000006,0.000000
